{
    "key": "group_5d152476d9520",
    "title": "Meeting Information",
    "fields": [
        {
            "key": "field_5d1526523eb51",
            "label": "Important!",
            "name": "",
            "type": "message",
            "instructions": "",
            "required": 0,
            "conditional_logic": 0,
            "wrapper": {
                "width": "",
                "class": "",
                "id": ""
            },
            "message": "Use the publish date on the right to set the date of the meeting. The next upcoming meeting will be used to populate various areas of the site, even it's \"scheduled\" and not \"published\".",
            "new_lines": "wpautop",
            "esc_html": 0
        },
        {
            "key": "field_5d1524a93eb4e",
            "label": "Agenda",
            "name": "agenda",
            "type": "file",
            "instructions": "",
            "required": 0,
            "conditional_logic": 0,
            "wrapper": {
                "width": "",
                "class": "",
                "id": ""
            },
            "return_format": "array",
            "library": "all",
            "min_size": "",
            "max_size": "",
            "mime_types": ""
        },
        {
            "key": "field_5d1524b43eb4f",
            "label": "Minutes",
            "name": "minutes",
            "type": "file",
            "instructions": "",
            "required": 0,
            "conditional_logic": 0,
            "wrapper": {
                "width": "",
                "class": "",
                "id": ""
            },
            "return_format": "array",
            "library": "all",
            "min_size": "",
            "max_size": "",
            "mime_types": ""
        },
        {
            "key": "field_5d1524bb3eb50",
            "label": "Video\/Audio Link",
            "name": "media_link",
            "type": "url",
            "instructions": "",
            "required": 0,
            "conditional_logic": 0,
            "wrapper": {
                "width": "",
                "class": "",
                "id": ""
            },
            "default_value": "",
            "placeholder": ""
        }
    ],
    "location": [
        [
            {
                "param": "post_type",
                "operator": "==",
                "value": "lpac_meeting"
            }
        ]
    ],
    "menu_order": 0,
    "position": "normal",
    "style": "default",
    "label_placement": "top",
    "instruction_placement": "label",
    "hide_on_screen": "",
    "active": 1,
    "description": "",
    "modified": 1561667276
}