{
    "key": "group_5d1570c8c8923",
    "title": "Front Page Information",
    "fields": [
        {
            "key": "field_5d1571345e263",
            "label": "Career's Link",
            "name": "careers_link",
            "type": "link",
            "instructions": "Link to the careers page. Button text is preset.",
            "required": 0,
            "conditional_logic": 0,
            "wrapper": {
                "width": "",
                "class": "",
                "id": ""
            },
            "return_format": "url"
        }
    ],
    "location": [
        [
            {
                "param": "page_type",
                "operator": "==",
                "value": "front_page"
            }
        ]
    ],
    "menu_order": 0,
    "position": "normal",
    "style": "default",
    "label_placement": "top",
    "instruction_placement": "label",
    "hide_on_screen": "",
    "active": 1,
    "description": "",
    "modified": 1561686358
}