{
    "key": "group_5d1aed3443871",
    "title": "Career Opening Additional Information",
    "fields": [
        {
            "key": "field_5d1afdf9c9fa8",
            "label": "Apply Now Link",
            "name": "apply_now_link",
            "type": "link",
            "instructions": "Choose the next page in the application process. This link is also appended at the end of the content written above.\r\n\r\nPopup Button text field is ignored.",
            "required": 0,
            "conditional_logic": 0,
            "wrapper": {
                "width": "",
                "class": "",
                "id": ""
            },
            "return_format": "array"
        },
        {
            "key": "field_5d1aefed9821e",
            "label": "Apply Now Short Info",
            "name": "apply_now_short_info",
            "type": "textarea",
            "instructions": "This is a short blurb about applying now that will be shown on the right sidebar of this page.",
            "required": 0,
            "conditional_logic": 0,
            "wrapper": {
                "width": "",
                "class": "",
                "id": ""
            },
            "default_value": "",
            "placeholder": "",
            "maxlength": "",
            "rows": "",
            "new_lines": ""
        },
        {
            "key": "field_5d1af0589821f",
            "label": "Side by Side CTAs",
            "name": "side_by_side_ctas",
            "type": "clone",
            "instructions": "",
            "required": 0,
            "conditional_logic": 0,
            "wrapper": {
                "width": "",
                "class": "",
                "id": ""
            },
            "clone": [
                "group_5d119d9f26adf"
            ],
            "display": "seamless",
            "layout": "block",
            "prefix_label": 0,
            "prefix_name": 0
        }
    ],
    "location": [
        [
            {
                "param": "page_template",
                "operator": "==",
                "value": "career-opening.php"
            }
        ]
    ],
    "menu_order": 0,
    "position": "normal",
    "style": "default",
    "label_placement": "top",
    "instruction_placement": "label",
    "hide_on_screen": "",
    "active": 1,
    "description": "",
    "modified": 1562050106
}