<?xml version="1.0" encoding="UTF-8"?>
<svg width="14px" height="7px" viewBox="0 0 14 7" version="1.1" xmlns="http://www.w3.org/2000/svg" xmlns:xlink="http://www.w3.org/1999/xlink">
    <!-- Generator: Sketch 55 (78076) - https://sketchapp.com -->
    <g id="Page-Designs" stroke="none" stroke-width="1" fill="none" fill-rule="evenodd">
        <g id="Tertiary/Specific-Audit-Copy" transform="translate(-461.000000, -451.000000)" stroke="#595959">
            <polyline id="Path-Copy-15" transform="translate(468.000000, 454.500000) rotate(180.000000) translate(-468.000000, -454.500000) " points="461 452 468 457 475 452"></polyline>
        </g>
    </g>
</svg>