<?xml version="1.0" encoding="UTF-8"?>
<svg width="24px" height="20px" viewBox="0 0 24 20" version="1.1" xmlns="http://www.w3.org/2000/svg" xmlns:xlink="http://www.w3.org/1999/xlink">
    <!-- Generator: Sketch 55 (78076) - https://sketchapp.com -->
    <g id="Page-Designs" stroke="none" stroke-width="1" fill="none" fill-rule="evenodd">
        <g id="Tertiary/Specific-Audit" transform="translate(-134.000000, -593.000000)" fill="#595959" fill-rule="nonzero">
            <g id="iconmonstr-book-15" transform="translate(134.000000, 593.000000)">
                <path d="M12,2.707 C9.062,0.877 4.584,0.14 0,0 L0,17.714 C3.937,17.834 7.795,18.395 10.667,19.709 C11.513,20.097 12.484,20.097 13.334,19.709 C16.206,18.395 20.063,17.834 24,17.714 L24,0 C19.416,0.14 14.938,0.877 12,2.707 Z M2,15.811 L2,2.107 C7.157,2.496 9.527,3.57 11,4.441 L11,17.609 C9.475,17.063 6.284,16.104 2,15.811 Z M22,15.811 C17.717,16.104 14.525,17.063 13,17.61 L13,4.439 C14.453,3.578 16.83,2.497 22,2.107 L22,15.811 Z" id="Shape"></path>
            </g>
        </g>
    </g>
</svg>